<svg xmlns="http://www.w3.org/2000/svg" width="32.537" height="22.925" viewBox="0 0 32.537 22.925">
  <path id="list-bullet" d="M3.615,22.925H1.807A1.788,1.788,0,0,1,0,21.162V19.4a1.788,1.788,0,0,1,1.807-1.763H3.615A1.788,1.788,0,0,1,5.422,19.4v1.763A1.788,1.788,0,0,1,3.615,22.925ZM1.807,19.4v1.763H3.615V19.4Zm29.825,1.763H9.942a.882.882,0,1,1,0-1.763H31.633a.882.882,0,1,1,0,1.763ZM3.615,14.108H1.807A1.788,1.788,0,0,1,0,12.345V10.582A1.788,1.788,0,0,1,1.807,8.818H3.615a1.788,1.788,0,0,1,1.807,1.763v1.763A1.788,1.788,0,0,1,3.615,14.108ZM1.807,10.582v1.763H3.615V10.582Zm29.825,1.763H9.942a.882.882,0,1,1,0-1.763H31.633a.882.882,0,1,1,0,1.763ZM3.615,5.29H1.807A1.788,1.788,0,0,1,0,3.527V1.763A1.788,1.788,0,0,1,1.807,0H3.615A1.788,1.788,0,0,1,5.422,1.763V3.527A1.788,1.788,0,0,1,3.615,5.29ZM1.807,1.763V3.527H3.615V1.763ZM31.633,3.527H9.942a.882.882,0,1,1,0-1.763H31.633a.882.882,0,1,1,0,1.763Z" />
</svg>
