<svg xmlns="http://www.w3.org/2000/svg" width="17" height="17" viewBox="0 0 17 17">
  <path id="Tracé_187" data-name="Tracé 187" d="M8.5,1.992A2.162,2.162,0,0,1,10.758,4.25,2.162,2.162,0,0,1,8.5,6.508,2.162,2.162,0,0,1,6.242,4.25,2.162,2.162,0,0,1,8.5,1.992m0,9.562c3.188,0,6.508,1.594,6.508,2.258v1.2H1.992v-1.2c0-.664,3.32-2.258,6.508-2.258M8.5,0A4.2,4.2,0,0,0,4.25,4.25,4.2,4.2,0,0,0,8.5,8.5a4.2,4.2,0,0,0,4.25-4.25A4.2,4.2,0,0,0,8.5,0Zm0,9.563c-2.922,0-8.5,1.328-8.5,4.25V17H17V13.813c0-2.922-5.578-4.25-8.5-4.25Zm0,0" />
</svg>
